start,end,benthicCat,randomRemark
0,3,C,CC
3,23,F,BB
23,56,B,BB
56,116,E,BB
116,138,B,AA
138,149,E,CC
149,191,G,AA
191,213,A,CC
213,316,I,BB
316,350,C,EE
350,367,E,CC
367,436,I,AA
436,458,F,AA
458,487,G,AA
487,500,I,BB
500,533,D,DD
533,655,G,BB
655,680,I,CC
680,683,E,CC
683,717,C,CC
717,861,I,CC
861,896,B,CC
896,906,H,AA
906,932,I,EE
932,958,B,BB
958,1063,H,EE
1063,1111,A,DD
1111,1132,E,EE
1132,1190,A,BB
1190,1191,B,DD
1191,1337,I,AA
1337,1347,B,DD
1347,1358,A,AA
1358,1387,E,AA
1387,1489,G,EE
1489,1509,C,CC
1509,1539,H,EE
1539,1549,G,EE
1549,1564,I,BB
1564,1573,B,BB
1573,1580,E,DD
1580,1587,A,AA
1587,1622,H,CC
1622,1648,D,CC
1648,1707,E,BB
1707,1739,H,DD
1739,1783,B,AA
1783,1793,G,EE
1793,1794,C,BB
1794,1860,I,BB
1860,1871,C,DD
1871,1876,G,CC
1876,1903,A,AA
1903,1966,G,CC
1966,1972,A,AA
1972,2132,C,CC
2132,2180,F,EE
2180,2182,I,AA
2182,2185,H,AA
2185,2190,I,CC
2190,2209,D,BB
2209,2225,F,DD
2225,2296,H,AA
2296,2297,D,AA
2297,2299,C,CC
2299,2320,D,EE
2320,2327,E,EE
2327,2338,A,BB
2338,2384,D,CC
2384,2411,F,EE
2411,2429,H,CC
2429,2476,A,DD
2476,2491,I,EE
2491,2498,E,BB
2498,2508,B,BB
2508,2514,G,BB
2514,2543,F,AA
2543,2577,B,BB
2577,2618,D,BB
2618,2624,C,EE
2624,2656,I,EE
2656,2670,A,DD
2670,2680,I,AA
2680,2703,G,CC
2703,2733,C,BB
2733,2798,G,DD
2798,2809,A,AA
2809,2968,I,BB
2968,2970,G,CC
2970,2972,B,BB
2972,2977,I,DD
2977,3012,D,BB
3012,3020,C,EE
3020,3075,D,AA
3075,3076,A,CC
3076,3079,G,EE
3079,3081,H,EE
3081,3083,E,DD
3083,3130,I,AA
3130,3207,A,AA
3207,3277,B,CC
3277,3280,G,DD
3280,3295,A,DD
3295,3314,F,CC
3314,3357,E,CC
3357,3493,G,EE
3493,3540,I,AA
3540,3618,F,DD
3618,3636,G,AA
3636,3649,H,BB
3649,3699,E,AA
3699,3774,G,CC
3774,3837,A,BB
3837,3872,C,DD
3872,3934,F,DD
3934,3945,E,BB
3945,3968,D,CC
3968,3994,B,EE
3994,4034,H,EE
4034,4044,C,EE
4044,4049,D,BB
4049,4050,B,BB
4050,4109,E,EE
4109,4156,H,CC
4156,4221,G,AA
4221,4230,A,DD
4230,4263,C,AA
4263,4357,D,AA
4357,4403,C,EE
4403,4408,D,EE
4408,4458,B,DD
4458,4482,E,CC
4482,4526,F,CC
4526,4570,A,EE
4570,4646,H,AA
4646,4648,C,BB
4648,4671,F,DD
4671,4687,D,AA
4687,4756,F,BB
4756,4766,G,EE
4766,4773,C,CC
4773,4827,H,BB
4827,4859,A,AA
4859,4862,D,DD
4862,4887,E,CC
4887,4945,A,AA
4945,4978,D,EE
4978,4984,I,BB
4984,5030,E,BB
5030,5072,G,DD
5072,5164,F,BB
5164,5170,E,DD
5170,5182,A,CC
5182,5185,H,EE
5185,5198,A,AA
5198,5212,E,BB
5212,5216,H,AA
5216,5233,C,EE
5233,5286,I,EE
5286,5325,C,AA
5325,5351,D,EE
5351,5364,C,EE
5364,5405,F,BB
5405,5426,H,EE
5426,5485,G,AA
5485,5487,C,AA
5487,5628,B,DD
5628,5701,F,DD
5701,5723,G,BB
5723,5863,A,DD
5863,5876,C,AA
5876,5984,A,EE
5984,5985,E,DD
5985,5992,I,BB
5992,6059,H,CC
6059,6077,F,DD
6077,6136,A,EE
6136,6137,G,DD
6137,6144,A,EE
6144,6216,H,BB
6216,6248,A,EE
6248,6255,D,DD
6255,6270,F,AA
6270,6284,C,BB
6284,6350,E,CC
6350,6362,A,CC
6362,6386,D,EE
6386,6466,C,CC
6466,6513,A,EE
6513,6565,I,BB
6565,6600,G,DD
6600,6633,F,CC
6633,6647,A,EE
6647,6667,G,CC
6667,6673,B,EE
6673,6695,F,BB
6695,6707,H,DD
6707,6731,B,BB
6731,6767,E,DD
6767,6770,H,AA
6770,6822,E,BB
6822,6852,F,EE
6852,6860,G,AA
6860,6874,A,CC
6874,6917,H,BB
6917,6926,C,EE
6926,6928,H,BB
6928,6973,I,AA
6973,6978,C,CC
6978,6999,E,AA
6999,7000,H,BB
7000,7068,D,AA
7068,7079,H,AA
7079,7105,I,BB
7105,7130,E,DD
7130,7157,I,AA
7157,7181,A,AA
7181,7209,E,DD
7209,7217,B,DD
7217,7232,I,BB
7232,7240,C,BB
7240,7242,G,BB
7242,7297,B,CC
7297,7375,G,EE
7375,7378,C,CC
7378,7381,D,DD
7381,7393,H,CC
7393,7396,B,AA
7396,7416,H,BB
7416,7448,E,CC
7448,7473,D,DD
7473,7535,B,AA
7535,7578,I,BB
7578,7610,B,BB
7610,7627,G,AA
7627,7647,A,DD
7647,7682,I,AA
7682,7897,A,EE
7897,7899,D,BB
7899,7906,E,AA
7906,7970,B,BB
7970,7983,I,DD
7983,7999,C,CC
7999,8015,I,DD
8015,8062,A,BB
8062,8145,I,EE
8145,8216,G,EE
8216,8255,I,DD
8255,8261,F,EE
8261,8280,H,CC
8280,8286,F,DD
8286,8333,I,DD
8333,8338,A,CC
8338,8409,F,EE
8409,8472,B,EE
8472,8511,E,AA
8511,8556,G,EE
8556,8603,C,CC
8603,8626,D,CC
8626,8643,C,BB
8643,8696,E,AA
8696,8705,H,AA
8705,8770,I,EE
8770,8784,H,BB
8784,8812,F,BB
8812,8831,H,DD
8831,8844,I,CC
8844,8877,G,EE
8877,8881,D,BB
8881,8905,H,DD
8905,8934,F,EE
8934,8944,A,CC
8944,9063,H,DD
9063,9084,G,CC
9084,9093,A,EE
9093,9123,G,BB
9123,9159,F,DD
9159,9164,A,CC
9164,9209,F,CC
9209,9222,H,BB
9222,9243,I,CC
9243,9262,A,AA
9262,9373,F,BB
9373,9433,D,EE
9433,9453,C,CC
9453,9454,I,AA
9454,9466,A,AA
9466,9474,C,BB
9474,9630,H,EE
9630,9639,F,CC
9639,9661,B,AA
9661,9777,C,CC
9777,9840,G,BB
9840,9845,F,AA
9845,9869,I,EE
9869,9874,H,BB
9874,9901,G,AA
9901,9919,D,DD
9919,9946,F,DD
9946,10000,H,CC
